…
    ## Warning: Expected 2 pieces. Additional pieces discarded in 31317 rows [600,
    ## 601, 738, 739, 981, 982, 984, 985, 991, 992, 1314, 1315, 1491, 1492, 2076, 2077,
    ## 2835, 2836, 3853, 3854, ...].

``` r
bigrams %>%
  filter(w1 == "history") %>%
  select(w1, w2) %>%
  count(w2, sort = TRUE)
```

    ## # A tibble: 366 x 2
    ##    w2                  n
    ##    <chr>           <int>
    ##  1 of               4537
    ##  2 the               761
    ##  3 she               279
    ##  4 he                227
    ##  5 significant       200
    ##  6 this              200
    ##  7 and               197
    ##  8 1                 181
    ##  9 is                172
    ## 10 noncontributory   121
    ## # ... with 356 more rows
…
